IS415-GAA - Take Home Assignment 1
…
conflict_events_sf <- acled_data_quarter_sf %>%
  filter(event_type %in% c("Battles", "Strategic developments", "Violence against civilians", "Explosion/Remote violence"))

write_rds(conflict_events_sf, "data/rds/conflict_events_sf.rds")

Read the files in rds format.

conflict_events_sf

Simple feature collection with 30400 features and 31 fields
Geometry type: POINT
Dimension:     XY
Bounding box:  xmin: -207135 ymin: 1103500 xmax: 640934.5 ymax: 3042960
Projected CRS: WGS 84 / UTM zone 47N
# A tibble: 30,400 × 32
   event_id_cnty event_date  year time_precision disorder_type        event_type
 * <chr>         <date>     <dbl>          <dbl> <chr>                <chr>     
 1 MMR64313      2024-06-30  2024              1 Political violence   Battles   
 2 MMR64320      2024-06-30  2024              1 Political violence   Battles   
 3 MMR64321      2024-06-30  2024              1 Political violence   Battles   
 4 MMR64322      2024-06-30  2024              1 Strategic developme… Strategic…
 5 MMR64323      2024-06-30  2024              1 Political violence   Battles   
 6 MMR64324      2024-06-30  2024              1 Strategic developme… Strategic…
 7 MMR64325      2024-06-30  2024              1 Political violence   Battles   
 8 MMR64326      2024-06-30  2024              1 Political violence   Battles   
 9 MMR64328      2024-06-30  2024              1 Political violence   Battles   
10 MMR64330      2024-06-30  2024              1 Political violence   Battles   
# ℹ 30,390 more rows
# ℹ 26 more variables: sub_event_type <chr>, actor1 <chr>, assoc_actor_1 <chr>,
#   inter1 <dbl>, actor2 <chr>, assoc_actor_2 <chr>, inter2 <dbl>,
#   interaction <dbl>, civilian_targeting <chr>, iso <dbl>, region <chr>,
#   country <chr>, admin1 <chr>, admin2 <chr>, admin3 <chr>, location <chr>,
#   geo_precision <dbl>, source <chr>, source_scale <chr>, notes <chr>,
#   fatalities <dbl>, tags <chr>, timestamp <dbl>, geometry <POINT [m]>, …
…
